source	target
NFATC3	IRF4
NFATC3	MAF
NFATC3	ELK1
NFATC3	NFKB1
NFATC3	USF2
NFATC3	MYB
NFATC3	GATA3
NFATC3	COPEB
NFATC3	STAT3
STAT3	STAT3
STAT3	MYB
IRF4	NFKB1
IRF4	MYB
IRF4	STAT3
JUN	NFKB1
JUN	COPEB
JUN	NFATC3
JUN	STAT3
JUN	IRF4
USF2	NFKB1
USF2	COPEB
USF2	JUN
USF2	IRF4
COPEB	MAF
COPEB	STAT3
COPEB	NFKB1
COPEB	COPEB
COPEB	MYB
COPEB	GATA3
COPEB	IRF4
COPEB	NFATC3
ELK1	MAF
ELK1	NFKB1
ELK1	JUN
ELK1	MYB
MAF	IRF4
NFKB1	IRF4
RELA	GATA3
RELA	MAF
MYB	ELK1
MYB	NFKB1
MYB	COPEB
MYB	NFATC3
MYB	STAT3
MYB	MYB
MYB	IRF4
GATA3	NFKB1
GATA3	COPEB
GATA3	NFATC3
GATA3	MYB
GATA3	STAT3
