source	t0	t1	t2	t3	t4	t5
A1BG	0.356355799177648	0.112524908697738	0.150289609857651	0.1889479146085	0.18610047481598	0.208450075223126
NAT1	0.023314351422668	0.061477663379947	0.099708106963282	0.120399051508746	0.109731696047385	0.120546346139042
AAMP	0.421955173582949	0.713749997916593	0.766837036281854	0.522828872277428	0.441663183864763	0.4738766013955
AANAT	0.002107621841814	0.001209185855011	0.001782742629273	0.003707552388687	0.007745660147011	0.004059110901778
AARS	0.076079818618819	0.294185001243328	0.414645410168883	0.606173877984665	0.34776536930658	0.306108060753227
